1,1,0.308267675617
1,2,2.99596418376
1,3,2.5858593922
1,4,1.18617262961
1,5,-0.1657123276
1,6,-0.356626130614
1,7,-0.747381796498
1,8,0.769737639178
1,9,-0.873948581918
2,1,-1.03613091609
2,2,1.15173956102
2,3,1.48089590658
2,4,2.99608126126
2,5,-0.147572427951
2,6,0.0429393857732
2,7,-0.24323761703
2,8,0.313949453575
2,9,-0.897472441314
3,1,0.998572945595
3,2,0.109002116263
3,3,0.0970473452393
3,4,-0.377324657128
3,5,0.10369088035
3,6,-0.0947885477632
3,7,0.0919558983722
3,8,-0.0991227584256
3,9,0.666651936438
4,1,0.427261277159
4,2,-1.01004113306
4,3,-1.48496148933
4,4,-0.368817039628
4,5,1.40402609221
4,6,-0.118898375884
4,7,1.98954406681
4,8,-0.18476590638
4,9,2.99961303427
5,1,-0.365047535886
5,2,1.00000140146
5,3,2.00000696228
5,4,0.41981579156
5,5,-0.945235025325
5,6,-0.0684291570187
5,7,-0.168905268066
5,8,1.98424165567
5,9,-0.432008523926
6,1,0.188635956492
6,2,1.77726709898
6,3,2.49722612959
6,4,1.04825253638
6,5,-0.853834501448
6,6,0.0137271532822
6,7,-0.752875159149
6,8,1.05741264953
6,9,-0.946127825432
7,1,2.99145544832
7,2,0.325418979241
7,3,0.289106886878
7,4,-1.13058317335
7,5,0.312073594946
7,6,-0.284044105449
7,7,0.277545779674
7,8,-0.297096248939
7,9,1.99999162576
8,1,0.416153425126
8,2,-0.235166074241
8,3,-1.7629734681
8,4,-0.215684370346
8,5,1.99427261311
8,6,-0.317764645831
8,7,1.45489623065
8,8,-1.03143919155
8,9,2.24947493382
9,1,-0.668739259571
9,2,-0.889653890507
9,3,0.0498242041291
9,4,0.110320788857
9,5,-0.558590548561
9,6,0.989931969002
9,7,-0.205060661877
9,8,-0.131215219358
9,9,-0.64615273454
